assignment3
…
crops <- lapply(fs, read.csv)

crops_df <- do.call(rbind, lapply(crops, function(x) {
  x %>% dplyr::select(Item, Area, Element, Year, Value) %>% 
    pivot_wider(names_from = Element, values_from = Value) %>% 
    rename(crop = Item, country = Area, year = Year, 
           harv_area = `Area harvested`, prod = Production)
}))
crop_ylds <- crops_df %>% mutate(yield = prod / harv_area)
crop_ylds

## # A tibble: 342 x 6
##    crop  country       year harv_area    prod yield
##    <chr> <chr>        <int>     <int>   <int> <dbl>
##  1 Maize South Africa  1961   4118000 5293000 1.29 
##  2 Maize South Africa  1962   4341000 6024000 1.39 
##  3 Maize South Africa  1963   4339000 6127000 1.41 
##  4 Maize South Africa  1964   4433000 4310000 0.972
##  5 Maize South Africa  1965   4290000 4608000 1.07 
##  6 Maize South Africa  1966   4241000 5161000 1.22 
##  7 Maize South Africa  1967   4589000 9802000 2.14 
##  8 Maize South Africa  1968   4728000 5358000 1.13 
##  9 Maize South Africa  1969   4387000 5378000 1.23 
## 10 Maize South Africa  1970   4418000 6179000 1.40 
## # … with 332 more rows
…
## # A tibble: 6 x 3
## # Groups:   crop [3]
##   crop    country mean_yield
##   <chr>   <chr>        <dbl>
## 1 maize   ZAF          2.47 
## 2 maize   ZMB          1.66 
## 3 sorghum ZAF          1.94 
## 4 sorghum ZMB          0.649
## 5 wheat   ZAF          1.73 
## 6 wheat   ZMB          4.43

crop_ylds %>% select(crop)

## # A tibble: 342 x 1
##    crop 
##    <chr>
##  1 maize
##  2 maize
##  3 maize
##  4 maize
##  5 maize
##  6 maize
##  7 maize
##  8 maize
##  9 maize
## 10 maize
## # … with 332 more rows
…
